// Jest Snapshot v1, https://goo.gl/fbAQLP

exports[`it renders correctly 1`] = `
ShallowWrapper {
  "length": 1,
  Symbol(enzyme.__root__): [Circular],
  Symbol(enzyme.__unrendered__): <DomainList
    domains={
      Array [
        Object {
          "createdAt": "now",
          "description": "",
          "hostname": "host",
          "id": 1,
          "resolves": true,
          "updatedAt": "now",
        },
        Object {
          "createdAt": "now",
          "description": "",
          "hostname": "hosty",
          "id": 2,
          "resolves": false,
          "updatedAt": "now",
        },
      ]
    }
    loading={false}
    query={[Function]}
    removeDomain={[Function]}
  />,
  Symbol(enzyme.__renderer__): Object {
    "batchedUpdates": [Function],
    "getNode": [Function],
    "render": [Function],
    "simulateEvent": [Function],
    "unmount": [Function],
  },
  Symbol(enzyme.__node__): Object {
    "instance": null,
    "key": undefined,
    "nodeType": "function",
    "props": Object {
      "children": Array [
        <Row
          gutter={0}
        >
          <Col
            span={4}
          >
            <Link
              replace={false}
              to="/create"
            >
              <Button
                ghost={false}
                loading={false}
                prefixCls="ant-btn"
                type="primary"
              >
                Add new DNS entry
              </Button>
            </Link>
          </Col>
          <Col
            offset={16}
            span={4}
          >
            <Button
              ghost={false}
              loading={false}
              onClick={[Function]}
              prefixCls="ant-btn"
              style={
                Object {
                  "float": "right",
                }
              }
            >
              Reload
            </Button>
          </Col>
        </Row>,
        <Table
          bordered={false}
          className=""
          dataSource={
            Array [
              Object {
                "createdAt": "now",
                "description": "",
                "hostname": "host",
                "id": 1,
                "resolves": true,
                "updatedAt": "now",
              },
              Object {
                "createdAt": "now",
                "description": "",
                "hostname": "hosty",
                "id": 2,
                "resolves": false,
                "updatedAt": "now",
              },
            ]
          }
          indentSize={20}
          loading={false}
          locale={Object {}}
          prefixCls="ant-table"
          rowKey="id"
          rowSelection={null}
          showHeader={true}
          size="large"
          useFixedHeader={false}
        >
          <Column
            dataIndex="hostname"
            title="Host"
          />
          <Column
            dataIndex="description"
            title="Description"
          />
          <Column
            dataIndex="resolves"
            render={[Function]}
            title="DNS Resolves"
          />
          <Column
            dataIndex="createdAt"
            title="Created At"
          />
          <Column
            render={[Function]}
            title="Delete"
          />
        </Table>,
      ],
    },
    "ref": null,
    "rendered": Array [
      Object {
        "instance": null,
        "key": undefined,
        "nodeType": "class",
        "props": Object {
          "children": Array [
            <Col
              span={4}
            >
              <Link
                replace={false}
                to="/create"
              >
                <Button
                  ghost={false}
                  loading={false}
                  prefixCls="ant-btn"
                  type="primary"
                >
                  Add new DNS entry
                </Button>
              </Link>
            </Col>,
            <Col
              offset={16}
              span={4}
            >
              <Button
                ghost={false}
                loading={false}
                onClick={[Function]}
                prefixCls="ant-btn"
                style={
                  Object {
                    "float": "right",
                  }
                }
              >
                Reload
              </Button>
            </Col>,
          ],
          "gutter": 0,
        },
        "ref": null,
        "rendered": Array [
          Object {
            "instance": null,
            "key": undefined,
            "nodeType": "class",
            "props": Object {
              "children": <Link
                replace={false}
                to="/create"
              >
                <Button
                  ghost={false}
                  loading={false}
                  prefixCls="ant-btn"
                  type="primary"
                >
                  Add new DNS entry
                </Button>
              </Link>,
              "span": 4,
            },
            "ref": null,
            "rendered": Object {
              "instance": null,
              "key": undefined,
              "nodeType": "class",
              "props": Object {
                "children": <Button
                  ghost={false}
                  loading={false}
                  prefixCls="ant-btn"
                  type="primary"
                >
                  Add new DNS entry
                </Button>,
                "replace": false,
                "to": "/create",
              },
              "ref": null,
              "rendered": Object {
                "instance": null,
                "key": undefined,
                "nodeType": "class",
                "props": Object {
                  "children": "Add new DNS entry",
                  "ghost": false,
                  "loading": false,
                  "prefixCls": "ant-btn",
                  "type": "primary",
                },
                "ref": null,
                "rendered": "Add new DNS entry",
                "type": [Function],
              },
              "type": [Function],
            },
            "type": [Function],
          },
          Object {
            "instance": null,
            "key": undefined,
            "nodeType": "class",
            "props": Object {
              "children": <Button
                ghost={false}
                loading={false}
                onClick={[Function]}
                prefixCls="ant-btn"
                style={
                  Object {
                    "float": "right",
                  }
                }
              >
                Reload
              </Button>,
              "offset": 16,
              "span": 4,
            },
            "ref": null,
            "rendered": Object {
              "instance": null,
              "key": undefined,
              "nodeType": "class",
              "props": Object {
                "children": "Reload",
                "ghost": false,
                "loading": false,
                "onClick": [Function],
                "prefixCls": "ant-btn",
                "style": Object {
                  "float": "right",
                },
              },
              "ref": null,
              "rendered": "Reload",
              "type": [Function],
            },
            "type": [Function],
          },
        ],
        "type": [Function],
      },
      Object {
        "instance": null,
        "key": undefined,
        "nodeType": "class",
        "props": Object {
          "bordered": false,
          "children": Array [
            <Column
              dataIndex="hostname"
              title="Host"
            />,
            <Column
              dataIndex="description"
              title="Description"
            />,
            <Column
              dataIndex="resolves"
              render={[Function]}
              title="DNS Resolves"
            />,
            <Column
              dataIndex="createdAt"
              title="Created At"
            />,
            <Column
              render={[Function]}
              title="Delete"
            />,
          ],
          "className": "",
          "dataSource": Array [
            Object {
              "createdAt": "now",
              "description": "",
              "hostname": "host",
              "id": 1,
              "resolves": true,
              "updatedAt": "now",
            },
            Object {
              "createdAt": "now",
              "description": "",
              "hostname": "hosty",
              "id": 2,
              "resolves": false,
              "updatedAt": "now",
            },
          ],
          "indentSize": 20,
          "loading": false,
          "locale": Object {},
          "prefixCls": "ant-table",
          "rowKey": "id",
          "rowSelection": null,
          "showHeader": true,
          "size": "large",
          "useFixedHeader": false,
        },
        "ref": null,
        "rendered": Array [
          Object {
            "instance": null,
            "key": "hostname",
            "nodeType": "class",
            "props": Object {
              "dataIndex": "hostname",
              "title": "Host",
            },
            "ref": null,
            "rendered": null,
            "type": [Function],
          },
          Object {
            "instance": null,
            "key": "description",
            "nodeType": "class",
            "props": Object {
              "dataIndex": "description",
              "title": "Description",
            },
            "ref": null,
            "rendered": null,
            "type": [Function],
          },
          Object {
            "instance": null,
            "key": "resolves",
            "nodeType": "class",
            "props": Object {
              "dataIndex": "resolves",
              "render": [Function],
              "title": "DNS Resolves",
            },
            "ref": null,
            "rendered": null,
            "type": [Function],
          },
          Object {
            "instance": null,
            "key": "createdAt",
            "nodeType": "class",
            "props": Object {
              "dataIndex": "createdAt",
              "title": "Created At",
            },
            "ref": null,
            "rendered": null,
            "type": [Function],
          },
          Object {
            "instance": null,
            "key": "delete",
            "nodeType": "class",
            "props": Object {
              "render": [Function],
              "title": "Delete",
            },
            "ref": null,
            "rendered": null,
            "type": [Function],
          },
        ],
        "type": [Function],
      },
    ],
    "type": Symbol(react.fragment),
  },
  Symbol(enzyme.__nodes__): Array [
    Object {
      "instance": null,
      "key": undefined,
      "nodeType": "function",
      "props": Object {
        "children": Array [
          <Row
            gutter={0}
          >
            <Col
              span={4}
            >
              <Link
                replace={false}
                to="/create"
              >
                <Button
                  ghost={false}
                  loading={false}
                  prefixCls="ant-btn"
                  type="primary"
                >
                  Add new DNS entry
                </Button>
              </Link>
            </Col>
            <Col
              offset={16}
              span={4}
            >
              <Button
                ghost={false}
                loading={false}
                onClick={[Function]}
                prefixCls="ant-btn"
                style={
                  Object {
                    "float": "right",
                  }
                }
              >
                Reload
              </Button>
            </Col>
          </Row>,
          <Table
            bordered={false}
            className=""
            dataSource={
              Array [
                Object {
                  "createdAt": "now",
                  "description": "",
                  "hostname": "host",
                  "id": 1,
                  "resolves": true,
                  "updatedAt": "now",
                },
                Object {
                  "createdAt": "now",
                  "description": "",
                  "hostname": "hosty",
                  "id": 2,
                  "resolves": false,
                  "updatedAt": "now",
                },
              ]
            }
            indentSize={20}
            loading={false}
            locale={Object {}}
            prefixCls="ant-table"
            rowKey="id"
            rowSelection={null}
            showHeader={true}
            size="large"
            useFixedHeader={false}
          >
            <Column
              dataIndex="hostname"
              title="Host"
            />
            <Column
              dataIndex="description"
              title="Description"
            />
            <Column
              dataIndex="resolves"
              render={[Function]}
              title="DNS Resolves"
            />
            <Column
              dataIndex="createdAt"
              title="Created At"
            />
            <Column
              render={[Function]}
              title="Delete"
            />
          </Table>,
        ],
      },
      "ref": null,
      "rendered": Array [
        Object {
          "instance": null,
          "key": undefined,
          "nodeType": "class",
          "props": Object {
            "children": Array [
              <Col
                span={4}
              >
                <Link
                  replace={false}
                  to="/create"
                >
                  <Button
                    ghost={false}
                    loading={false}
                    prefixCls="ant-btn"
                    type="primary"
                  >
                    Add new DNS entry
                  </Button>
                </Link>
              </Col>,
              <Col
                offset={16}
                span={4}
              >
                <Button
                  ghost={false}
                  loading={false}
                  onClick={[Function]}
                  prefixCls="ant-btn"
                  style={
                    Object {
                      "float": "right",
                    }
                  }
                >
                  Reload
                </Button>
              </Col>,
            ],
            "gutter": 0,
          },
          "ref": null,
          "rendered": Array [
            Object {
              "instance": null,
              "key": undefined,
              "nodeType": "class",
              "props": Object {
                "children": <Link
                  replace={false}
                  to="/create"
                >
                  <Button
                    ghost={false}
                    loading={false}
                    prefixCls="ant-btn"
                    type="primary"
                  >
                    Add new DNS entry
                  </Button>
                </Link>,
                "span": 4,
              },
              "ref": null,
              "rendered": Object {
                "instance": null,
                "key": undefined,
                "nodeType": "class",
                "props": Object {
                  "children": <Button
                    ghost={false}
                    loading={false}
                    prefixCls="ant-btn"
                    type="primary"
                  >
                    Add new DNS entry
                  </Button>,
                  "replace": false,
                  "to": "/create",
                },
                "ref": null,
                "rendered": Object {
                  "instance": null,
                  "key": undefined,
                  "nodeType": "class",
                  "props": Object {
                    "children": "Add new DNS entry",
                    "ghost": false,
                    "loading": false,
                    "prefixCls": "ant-btn",
                    "type": "primary",
                  },
                  "ref": null,
                  "rendered": "Add new DNS entry",
                  "type": [Function],
                },
                "type": [Function],
              },
              "type": [Function],
            },
            Object {
              "instance": null,
              "key": undefined,
              "nodeType": "class",
              "props": Object {
                "children": <Button
                  ghost={false}
                  loading={false}
                  onClick={[Function]}
                  prefixCls="ant-btn"
                  style={
                    Object {
                      "float": "right",
                    }
                  }
                >
                  Reload
                </Button>,
                "offset": 16,
                "span": 4,
              },
              "ref": null,
              "rendered": Object {
                "instance": null,
                "key": undefined,
                "nodeType": "class",
                "props": Object {
                  "children": "Reload",
                  "ghost": false,
                  "loading": false,
                  "onClick": [Function],
                  "prefixCls": "ant-btn",
                  "style": Object {
                    "float": "right",
                  },
                },
                "ref": null,
                "rendered": "Reload",
                "type": [Function],
              },
              "type": [Function],
            },
          ],
          "type": [Function],
        },
        Object {
          "instance": null,
          "key": undefined,
          "nodeType": "class",
          "props": Object {
            "bordered": false,
            "children": Array [
              <Column
                dataIndex="hostname"
                title="Host"
              />,
              <Column
                dataIndex="description"
                title="Description"
              />,
              <Column
                dataIndex="resolves"
                render={[Function]}
                title="DNS Resolves"
              />,
              <Column
                dataIndex="createdAt"
                title="Created At"
              />,
              <Column
                render={[Function]}
                title="Delete"
              />,
            ],
            "className": "",
            "dataSource": Array [
              Object {
                "createdAt": "now",
                "description": "",
                "hostname": "host",
                "id": 1,
                "resolves": true,
                "updatedAt": "now",
              },
              Object {
                "createdAt": "now",
                "description": "",
                "hostname": "hosty",
                "id": 2,
                "resolves": false,
                "updatedAt": "now",
              },
            ],
            "indentSize": 20,
            "loading": false,
            "locale": Object {},
            "prefixCls": "ant-table",
            "rowKey": "id",
            "rowSelection": null,
            "showHeader": true,
            "size": "large",
            "useFixedHeader": false,
          },
          "ref": null,
          "rendered": Array [
            Object {
              "instance": null,
              "key": "hostname",
              "nodeType": "class",
              "props": Object {
                "dataIndex": "hostname",
                "title": "Host",
              },
              "ref": null,
              "rendered": null,
              "type": [Function],
            },
            Object {
              "instance": null,
              "key": "description",
              "nodeType": "class",
              "props": Object {
                "dataIndex": "description",
                "title": "Description",
              },
              "ref": null,
              "rendered": null,
              "type": [Function],
            },
            Object {
              "instance": null,
              "key": "resolves",
              "nodeType": "class",
              "props": Object {
                "dataIndex": "resolves",
                "render": [Function],
                "title": "DNS Resolves",
              },
              "ref": null,
              "rendered": null,
              "type": [Function],
            },
            Object {
              "instance": null,
              "key": "createdAt",
              "nodeType": "class",
              "props": Object {
                "dataIndex": "createdAt",
                "title": "Created At",
              },
              "ref": null,
              "rendered": null,
              "type": [Function],
            },
            Object {
              "instance": null,
              "key": "delete",
              "nodeType": "class",
              "props": Object {
                "render": [Function],
                "title": "Delete",
              },
              "ref": null,
              "rendered": null,
              "type": [Function],
            },
          ],
          "type": [Function],
        },
      ],
      "type": Symbol(react.fragment),
    },
  ],
  Symbol(enzyme.__options__): Object {
    "adapter": ReactSixteenAdapter {
      "options": Object {
        "enableComponentDidUpdateOnSetState": true,
      },
    },
  },
}
`;
